new Bar:bar = CreateProgressBar(499.00, 116.00, 106.50, 4.19, -1428190465, 100.0);
ShowProgressBarForAll(bar);

Now, take a look at the official SA:MP forum topic to know how to use this:

http://forum.sa-mp.com/index.php?topic=138556
