[29/01/2017, 22:05] Adam_Jensen ha comprado el negocio ID: 0 por $1.
[18/02/2017, 21:20] Mariano_Velez ha comprado el negocio ID: 38 por $1.
[18/04/2017, 01:20] Strek_Ruroken ha comprado el negocio ID: 33 por $250,000.
[22/04/2017, 02:17] Strek_Ruroken ha comprado el negocio ID: 60 por $1.
