[22/04/2017, 02:23] Máscara_#86033 le ha dado/modificado el rango a Máscara_#25766 (Rango: Director)
[22/04/2017, 02:23] Strek Ruroken le ha dado/modificado el rango a Máscara_#25766 (Rango: Director)
[25/04/2017, 01:15] Strek Ruroken le ha dado/modificado el rango a Marc Bass (Rango: Moderador)
[27/04/2017, 15:31] Strek Ruroken le ha dado/modificado el rango a Máscara_#33952 (Rango: Director)
[27/04/2017, 15:38] Marc Bass le ha dado/modificado el rango a Ryan Brown (Rango: Ayudante)
[27/04/2017, 15:38] Marc Bass le ha dado/modificado el rango a Ryan Brown (Rango: Moderador)
[27/04/2017, 15:38] Marc Bass le ha dado/modificado el rango a Ryan Brown (Rango: Administrador)
[27/04/2017, 15:38] Marc Bass le ha dado/modificado el rango a Ryan Brown (Rango: Admin Superior)
[27/04/2017, 15:38] Marc Bass le ha dado/modificado el rango a Ryan Brown (Rango: Admin General)
[27/04/2017, 15:39] Marc Bass le ha dado/modificado el rango a Ryan Brown (Rango: Ayudante)
[27/04/2017, 15:39] Marc Bass le ha dado/modificado el rango a Ryan Brown (Rango: Director)
[27/04/2017, 22:28] Marc Bass le ha dado/modificado el rango a Strek Ruroken (Rango: Ayudante)
[27/04/2017, 22:29] Marc Bass le ha dado/modificado el rango a Strek Ruroken (Rango: Moderador)
[27/04/2017, 22:29] Marc Bass le ha dado/modificado el rango a Strek Ruroken (Rango: Administrador)
[27/04/2017, 22:29] Marc Bass le ha dado/modificado el rango a Strek Ruroken (Rango: Admin Superior)
[27/04/2017, 22:29] Marc Bass le ha dado/modificado el rango a Strek Ruroken (Rango: Admin General)
[27/04/2017, 22:43] Strek Ruroken le ha dado/modificado el rango a Strek Ruroken (Rango: Ayudante)
[28/04/2017, 01:12] Strek Ruroken le ha dado/modificado el rango a Strek Ruroken (Rango: Ayudante)
[01/05/2017, 03:42] Strek Ruroken le ha dado/modificado el rango a Strek Ruroken (Rango: Admin General)
[01/05/2017, 14:03] Strek Ruroken le ha dado/modificado el rango a Kyle Ferguson (Rango: Director)
[11/12/2017, 20:40] Strek Ruroken le ha dado/modificado el rango a Quinn Humphreys (Rango: Director)
[26/08/2018, 20:50] Quinn Humphreys le ha dado/modificado el rango a Cristhian Castillo (Rango: Admin Superior)
[31/08/2018, 17:15] Quinn Humphreys le ha dado/modificado el rango a Strek Rurokessnhgh (Rango: Ayudante)
[31/08/2018, 19:54] Quinn Humphreys le ha dado/modificado el rango a Alex Block (Rango: Ayudante)
[31/08/2018, 20:00] Quinn Humphreys le ha dado/modificado el rango a Alex Block (Rango: Ayudante)
[31/08/2018, 20:34] Quinn Humphreys le ha dado/modificado el rango a Strek Ruroken (Rango: Ayudante)
[31/08/2018, 20:35] Quinn Humphreys le ha dado/modificado el rango a Strek Ruroken (Rango: Ayudante)
[31/08/2018, 20:39] Quinn Humphreys le ha dado/modificado el rango a Strek Ruroken (Rango: Ayudante)
[31/08/2018, 20:47] Quinn Humphreys le ha dado/modificado el rango a Strek Ruroken (Rango: Ayudante)
[24/09/2018, 16:40] Quinn Humphreys le ha dado/modificado el rango a Leif Bronnfjell (Rango: Moderador)
[24/09/2018, 18:40] Quinn Humphreys le ha dado/modificado el rango a Andrew Collins (Rango: Admin Superior)
