[15/09/2016, 13:55] Strek_Ruroken ha comprado la casa ID: 56 por $49,000.
[15/09/2016, 14:02] Strek_Ruroken ha comprado la casa ID: 56 por $49,000.
[28/09/2016, 10:13] Mario_Ruroken ha comprado la casa ID: 93 por $25,000.
[29/09/2016, 11:16] Strek_Ruroken ha comprado la casa ID: 55 por $49,000.
[29/01/2017, 21:12] Strek_Ruroken ha comprado la casa ID: 0 por $1.
[08/02/2017, 19:18] Strek_Ruroken ha comprado la casa ID: 51 por $45,000.
