[24/09/2018, 16:50] Leif Bronnfjell ha jaileado a Quinn Humphreys por 1 minuto(s), razón: 1.
[24/09/2018, 16:50] Leif Bronnfjell ha jaileado a Alex Block por 99999 minuto(s), razón: 1.
[24/09/2018, 16:50] Quinn Humphreys ha liberado a Quinn Humphreys de jail.
[24/09/2018, 16:50] Alex Block ha jaileado a Leif Bronnfjell por 9999 minuto(s), razón: nose .
[24/09/2018, 16:50] Quinn Humphreys ha liberado a Leif Bronnfjell de jail.
[24/09/2018, 16:50] Quinn Humphreys ha liberado a Alex Block de jail.
