[13/09/2016, 22:22] Luis Medina ha expulsado a Marc Bass razón: afk
[26/08/2018, 21:04] Cristhian Castillo ha expulsado a Nicolas Ferreira razón: fuera
[26/08/2018, 21:05] Cristhian Castillo ha expulsado a Yao Shing razón: Fuera
[26/08/2018, 21:05] Cristhian Castillo ha expulsado a Ricardo Rodriguez razón: Fuera
[26/08/2018, 21:06] Cristhian Castillo ha expulsado a Elena Cordoba razón: Fuera
[31/08/2018, 17:21] Quinn Humphreys ha expulsado a Alex Block razón: Prueba
