[28/09/2016, 11:15] n/a: Table 'cloudrp_samp.puertas' doesn't exist
[29/09/2016, 00:15] n/a: You have an error in your SQL syntax; check the manual that corresponds to your MySQL server version for the right syntax to use near 'SET PosIntx = 0.0000, PosInty = 0.0000, PosIntz = 0.0000, PosInta = 0.0000 WHERE' at line 1
[18/11/2016, 13:08] OnObjCreated: Failed to read auto-increment value from storage engine
[29/01/2017, 21:15] OnObjCreated: Failed to read auto-increment value from storage engine
[02/02/2017, 21:54] n/a: You have an error in your SQL syntax; check the manual that corresponds to your MySQL server version for the right syntax to use near '911 calls' at line 1
[02/02/2017, 21:55] n/a: You have an error in your SQL syntax; check the manual that corresponds to your MySQL server version for the right syntax to use near '911 calls' at line 1
[02/02/2017, 22:30] ViewVehicleInfo: Unknown column 'LSPD' in 'where clause'
[02/02/2017, 22:30] ViewVehicleInfo: Unknown column 'LSPD' in 'where clause'
[06/02/2017, 20:16] n/a: Duplicate entry '1' for key 'PRIMARY'
[06/02/2017, 20:25] n/a: Duplicate entry '1' for key 'PRIMARY'
[06/02/2017, 21:08] n/a: Duplicate entry '1' for key 'PRIMARY'
[08/02/2017, 19:00] n/a: Unknown column 'Seguro' in 'field list'
[08/02/2017, 19:19] OnGarageCreated: Duplicate entry '0' for key 'PRIMARY'
