	// TAXI COB & SPAWN UNITY
    CreateDynamicObject(673, 1787.02173, -1937.94922, 12.37172,   0.00000, 0.00000, 0.00000);
    CreateDynamicObject(673, 1799.22998, -1937.92419, 12.37172,   0.00000, 0.00000, 0.00000);
    CreateDynamicObject(673, 1776.18640, -1938.03882, 12.37172,   0.00000, 0.00000, 0.00000);
    CreateDynamicObject(1444, 1766.15198, -1906.52795, 13.41530,   0.00000, 0.00000, 269.07480);
    CreateDynamicObject(708, 1809.41614, -1901.31396, 9.01145,   0.00000, 0.00000, 0.00000);
    CreateDynamicObject(830, 1810.10413, -1898.01416, 13.08270,   0.00000, 0.00000, 0.00000);
    CreateDynamicObject(830, 1808.41553, -1899.83936, 13.08270,   0.00000, 0.00000, 144.30426);
    CreateDynamicObject(10829, 1801.83154, -1900.35547, 12.38892,   0.00000, 0.00000, 269.82898);
    CreateDynamicObject(967, 1810.97083, -1883.79639, 12.51870,   0.00000, 0.00000, 359.56137);
    CreateDynamicObject(966, 1811.24573, -1893.18213, 12.39260,   0.00000, 0.00000, 267.60519);
    CreateDynamicObject(970, 1811.55286, -1900.80872, 13.12040,   0.00000, 0.00000, 268.72891);
    CreateDynamicObject(968, 1811.20142, -1893.19958, 13.14800,   -0.58140, 0.64140, 0.00000);
    CreateDynamicObject(970, 1791.36951, -1900.55981, 12.89423,   0.00000, 0.00000, 89.35588);
    CreateDynamicObject(970, 1793.47595, -1898.59070, 12.89423,   0.00000, 0.00000, 357.92365);
    CreateDynamicObject(970, 1791.33838, -1904.72266, 12.89423,   0.00000, 0.00000, 89.35588);
    CreateDynamicObject(966, 1791.19238, -1913.81299, 12.39260,   0.00000, 0.00000, 269.56906);
    CreateDynamicObject(970, 1790.18774, -1917.10547, 12.89423,   0.00000, 0.00000, 89.35588);
    CreateDynamicObject(970, 1790.13928, -1921.17896, 12.89423,   0.00000, 0.00000, 89.35588);
    CreateDynamicObject(970, 1790.08643, -1925.30408, 12.89423,   0.00000, 0.00000, 89.35588);
    CreateDynamicObject(970, 1790.04102, -1929.40552, 12.89423,   0.00000, 0.00000, 89.35588);
    CreateDynamicObject(970, 1790.01306, -1933.49097, 12.89523,   0.00000, 0.00000, 89.35588);
    CreateDynamicObject(673, 1807.78735, -1908.63257, 12.37172,   0.00000, 0.00000, 0.00000);
    CreateDynamicObject(673, 1807.82129, -1917.72058, 12.37172,   0.00000, 0.00000, 0.00000);
    CreateDynamicObject(673, 1807.97644, -1926.63049, 12.37172,   0.00000, 0.00000, 0.00000);
    CreateDynamicObject(673, 1808.31445, -1935.64148, 12.37172,   0.00000, 0.00000, 0.00000);
    CreateDynamicObject(4639, 1790.71472, -1915.92615, 13.71510,   0.00000, 0.00000, 88.62369);
    CreateDynamicObject(1281, 1762.84521, -1888.97522, 13.37451,   0.00000, 0.00000, 0.00000);
    CreateDynamicObject(1281, 1762.58093, -1896.57678, 13.37451,   0.00000, 0.00000, 0.00000);
    CreateDynamicObject(1281, 1769.38831, -1896.47180, 13.37451,   0.00000, 0.00000, 0.00000);
    CreateDynamicObject(1281, 1769.61597, -1888.76648, 13.37451,   0.00000, 0.00000, 0.00000);
    CreateDynamicObject(717, 1765.60315, -1892.72095, 12.56169,   0.00000, 0.00000, 0.00000);
    CreateDynamicObject(737, 1765.60046, -1932.07263, 12.74810,   0.00000, 0.00000, 0.00000);
    CreateDynamicObject(737, 1765.56055, -1921.88660, 12.74810,   0.00000, 0.00000, 0.00000);
    CreateDynamicObject(737, 1765.79932, -1911.74207, 12.74810,   0.00000, 0.00000, 0.00000);
    CreateDynamicObject(970, 1806.69116, -1907.03406, 13.09523,   0.00000, 0.00000, 89.96291);
    CreateDynamicObject(970, 1806.68762, -1911.19507, 13.09523,   0.00000, 0.00000, 89.96291);
    CreateDynamicObject(970, 1806.68347, -1915.35620, 13.09523,   0.00000, 0.00000, 89.96291);
    CreateDynamicObject(970, 1806.67969, -1919.51807, 13.09523,   0.00000, 0.00000, 89.96291);
    CreateDynamicObject(970, 1806.67493, -1923.65979, 13.09523,   0.00000, 0.00000, 89.96291);
    CreateDynamicObject(970, 1806.67639, -1927.79102, 13.09523,   0.00000, 0.00000, 89.96291);
    CreateDynamicObject(970, 1806.67651, -1931.94189, 13.09523,   0.00000, 0.00000, 89.96291);
    CreateDynamicObject(970, 1806.64832, -1933.44214, 13.09523,   0.00000, 0.00000, 89.96291);
    CreateDynamicObject(970, 1804.57703, -1935.57129, 13.05730,   0.00000, 0.00000, 0.00000);
    CreateDynamicObject(970, 1800.41321, -1935.56470, 13.05730,   0.00000, 0.00000, 0.00000);
    CreateDynamicObject(970, 1796.25208, -1935.56152, 13.05730,   0.00000, 0.00000, 0.00000);
    CreateDynamicObject(970, 1792.09094, -1935.55798, 13.05730,   0.00000, 0.00000, 0.00000);
    CreateDynamicObject(970, 1787.95056, -1935.55408, 13.05730,   0.00000, 0.00000, 0.00000);
    CreateDynamicObject(970, 1783.79004, -1935.54932, 13.05730,   0.00000, 0.00000, 0.00000);
    CreateDynamicObject(970, 1779.64954, -1935.54541, 13.05730,   0.00000, 0.00000, 0.00000);
    CreateDynamicObject(970, 1776.39417, -1935.55383, 13.05730,   0.00000, 0.00000, 0.00000);
    CreateDynamicObject(19589, 1809.01001, -1903.88062, 12.70370,   0.00000, 0.00000, 0.00000);
    CreateDynamicObject(8652, 1789.05969, -1884.32190, 13.39760,   0.00000, 0.00000, 180.02040);
    CreateDynamicObject(8652, 1774.14331, -1920.73389, 13.58832,   0.00000, 0.00000, 270.04178);
    CreateDynamicObject(8652, 1774.29395, -1886.80371, 13.49851,   0.00000, 0.00000, 89.97377);
    CreateDynamicObject(968, 1791.19690, -1913.80017, 13.14800,   -0.58140, 0.64140, 0.00000);
    CreateDynamicObject(970, 1772.28845, -1905.97278, 13.12040,   0.00000, 0.00000, 0.00000);
    CreateDynamicObject(19366, 1751.10181, -1898.82410, 26.02889,   0.00000, 0.00000, 0.00000);
    CreateDynamicObject(19366, 1751.10181, -1898.82410, 14.14356,   0.00000, 0.00000, 0.00000);
    CreateDynamicObject(19366, 1751.10181, -1898.82410, 17.45820,   0.00000, 0.00000, 0.00000);
    CreateDynamicObject(19366, 1751.10181, -1898.82410, 20.79901,   0.00000, 0.00000, 0.00000);
    CreateDynamicObject(19366, 1751.12292, -1905.18311, 13.32382,   0.00000, 0.00000, 0.00000);
    CreateDynamicObject(19366, 1751.20581, -1901.97583, 26.00060,   0.00000, 0.00000, 0.00000);
    CreateDynamicObject(19366, 1751.10303, -1907.76306, 12.95083,   0.00000, 0.00000, 0.00000);
    CreateDynamicObject(19366, 1751.10303, -1907.76306, 26.05361,   0.00000, 0.00000, 0.00000);
    CreateDynamicObject(19366, 1751.10303, -1907.76306, 19.69151,   0.00000, 0.00000, 0.00000);
    CreateDynamicObject(19366, 1751.10303, -1907.76306, 16.41793,   0.00000, 0.00000, 0.00000);
    CreateDynamicObject(19366, 1751.12292, -1905.18311, 26.00442,   0.00000, 0.00000, 0.00000);
    CreateDynamicObject(19366, 1751.12292, -1905.18311, 20.00602,   0.00000, 0.00000, 0.00000);
    CreateDynamicObject(19366, 1751.12292, -1905.18311, 16.82534,   0.00000, 0.00000, 0.00000);
    CreateDynamicObject(19366, 1751.09570, -1898.38440, 14.14421,   0.00000, 0.00000, 0.00000);
    CreateDynamicObject(19366, 1751.09570, -1898.38440, 25.98058,   0.00000, 0.00000, 0.00000);
    CreateDynamicObject(19366, 1751.09570, -1898.38440, 19.81121,   0.00000, 0.00000, 0.00000);
    CreateDynamicObject(19366, 1751.09570, -1898.38440, 16.32530,   0.00000, 0.00000, 0.00000);
    CreateDynamicObject(19366, 1751.10303, -1907.76306, 23.15626,   0.00000, 0.00000, 0.00000);
    CreateDynamicObject(19366, 1751.12292, -1905.18311, 23.15626,   0.00000, 0.00000, 0.00000);
    CreateDynamicObject(19366, 1751.09448, -1901.98560, 23.15626,   0.00000, 0.00000, 0.00000);
    CreateDynamicObject(19366, 1751.10181, -1898.82410, 23.15626,   0.00000, 0.00000, 0.00000);
    CreateDynamicObject(19366, 1751.09570, -1898.38440, 23.15626,   0.00000, 0.00000, 0.00000);
    CreateDynamicObject(1363, 1756.79675, -1891.29663, 13.49338,   0.00000, 0.00000, 0.00000);
    CreateDynamicObject(4100, 1774.75134, -1942.34766, 14.20290,   0.00000, 0.00000, 320.86169);
    CreateDynamicObject(4100, 1760.97241, -1942.51978, 14.20290,   0.00000, 0.00000, 320.86169);
    CreateDynamicObject(19985, 1796.21277, -1884.43896, 12.39550,   0.00000, 0.00000, 53.33966);
    CreateDynamicObject(673, 1791.61426, -1882.89746, 11.55968,   0.00000, 0.00000, 0.00000);
    CreateDynamicObject(970, 1808.15234, -1884.54285, 12.91550,   0.00000, 0.00000, 0.00000);
    CreateDynamicObject(970, 1797.60425, -1898.72778, 12.89423,   0.00000, 0.00000, 357.92365);
    CreateDynamicObject(673, 1800.13940, -1882.78979, 11.55968,   0.00000, 0.00000, 0.00000);
    CreateDynamicObject(673, 1807.55969, -1883.02002, 11.55968,   0.00000, 0.00000, 0.00000);
    CreateDynamicObject(970, 1804.04834, -1884.54285, 12.93010,   0.00000, 0.00000, 0.00000);
    CreateDynamicObject(970, 1811.66333, -1879.87561, 13.06330,   0.00000, 0.00000, 270.18530);
    CreateDynamicObject(970, 1811.66174, -1875.71191, 13.06330,   0.00000, 0.00000, 270.18530);
    CreateDynamicObject(970, 1811.62476, -1896.70471, 13.12040,   0.00000, 0.00000, 268.72891);
    CreateDynamicObject(970, 1772.28845, -1901.58081, 13.12040,   0.00000, 0.00000, 0.00000);
    CreateDynamicObject(970, 1768.11255, -1905.97278, 13.12040,   0.00000, 0.00000, 0.00000);
    CreateDynamicObject(970, 1768.11255, -1901.58081, 13.12040,   0.00000, 0.00000, 0.00000);